…
    ## Rows: 4342 Columns: 20

    ## ── Column specification ────────────────────────────────────────────────────────
    ## Delimiter: ","
    ## dbl (20): babysex, bhead, blength, bwt, delwt, fincome, frace, gaweeks, malf...

    ## 
    ## ℹ Use `spec()` to retrieve the full column specification for this data.
    ## ℹ Specify the column types or set `show_col_types = FALSE` to quiet this message.

``` r
childbwt_tidy
```

    ## # A tibble: 4,342 × 20
    ##    babysex bhead blength   bwt delwt fincome frace gaweeks malform menarche
    ##    <fct>   <dbl>   <dbl> <dbl> <dbl>   <dbl> <fct>   <dbl> <fct>      <dbl>
    ##  1 2          34      51  3629   177      35 1        39.9 0             13
    ##  2 1          34      48  3062   156      65 2        25.9 0             14
    ##  3 2          36      50  3345   148      85 1        39.9 0             12
    ##  4 1          34      52  3062   157      55 1        40   0             14
    ##  5 2          34      52  3374   156       5 1        41.6 0             13
    ##  6 1          33      52  3374   129      55 1        40.7 0             12
    ##  7 2          33      46  2523   126      96 2        40.3 0             14
    ##  8 2          33      49  2778   140       5 1        37.4 0             12
    ##  9 1          36      52  3515   146      85 1        40.3 0             11
    ## 10 1          33      50  3459   169      75 2        40.7 0             12
    ## # … with 4,332 more rows, and 10 more variables: mheight <dbl>, momage <dbl>,
    ## #   mrace <fct>, parity <dbl>, pnumlbw <dbl>, pnumsga <dbl>, ppbmi <dbl>,
    ## #   ppwt <dbl>, smoken <dbl>, wtgain <dbl>
…
# One using head circumference, length, sex, and all interactions(including the three-way interaction) between these
model2 = lm(bwt ~ babysex * blength * bhead, data = childbwt_tidy) %>% 
  broom::tidy() 
```

Make this comparison in terms of the cross-validated prediction error

``` r
cv_df = 
  crossv_mc(childbwt_tidy, 100)

cv_df %>% pull(train) %>% .[[1]] %>% as_tibble
```

    ## # A tibble: 3,473 × 20
    ##    babysex bhead blength   bwt delwt fincome frace gaweeks malform menarche
    ##    <fct>   <dbl>   <dbl> <dbl> <dbl>   <dbl> <fct>   <dbl> <fct>      <dbl>
    ##  1 2          34      51  3629   177      35 1        39.9 0             13
    ##  2 1          34      48  3062   156      65 2        25.9 0             14
    ##  3 2          36      50  3345   148      85 1        39.9 0             12
    ##  4 1          34      52  3062   157      55 1        40   0             14
    ##  5 2          34      52  3374   156       5 1        41.6 0             13
    ##  6 2          33      46  2523   126      96 2        40.3 0             14
    ##  7 2          33      49  2778   140       5 1        37.4 0             12
    ##  8 1          33      50  3459   169      75 2        40.7 0             12
    ##  9 2          35      51  3317   130      55 1        43.4 0             13
    ## 10 1          35      51  3459   146      55 1        39.4 0             12
    ## # … with 3,463 more rows, and 10 more variables: mheight <dbl>, momage <dbl>,
    ## #   mrace <fct>, parity <dbl>, pnumlbw <dbl>, pnumsga <dbl>, ppbmi <dbl>,
    ## #   ppwt <dbl>, smoken <dbl>, wtgain <dbl>

``` r
cv_df %>% pull(test) %>% .[[1]] %>% as_tibble
```

    ## # A tibble: 869 × 20
    ##    babysex bhead blength   bwt delwt fincome frace gaweeks malform menarche
    ##    <fct>   <dbl>   <dbl> <dbl> <dbl>   <dbl> <fct>   <dbl> <fct>      <dbl>
    ##  1 1          33      52  3374   129      55 1        40.7 0             12
    ##  2 1          36      52  3515   146      85 1        40.3 0             11
    ##  3 1          36      53  3629   147      75 1        41.3 0             11
    ##  4 2          36      52  3629   154      65 1        40.3 0             11
    ##  5 2          35      57  3374   147      45 1        39.6 0             12
    ##  6 2          34      49  3118   161      45 2        38.9 0             10
    ##  7 2          34      54  3345   130      95 1        42.1 0             10
    ##  8 2          34      51  3175   142      96 1        42.3 0             17
    ##  9 2          34      51  3203   132      85 1        43.7 0             13
    ## 10 1          34      52  3033   172      85 1        41.1 0             16
    ## # … with 859 more rows, and 10 more variables: mheight <dbl>, momage <dbl>,
    ## #   mrace <fct>, parity <dbl>, pnumlbw <dbl>, pnumsga <dbl>, ppbmi <dbl>,
    ## #   ppwt <dbl>, smoken <dbl>, wtgain <dbl>
…
``` r
boot_straps_log = 
  boot_straps %>% 
  select(.id, term, estimate) %>% 
  pivot_wider(
    names_from = "term",
    values_from = "estimate"
    ) %>% 
  rename(intercept = "(Intercept)") %>% 
  mutate(log_beta = log(intercept*tmin))

boot_straps_log
```

    ## # A tibble: 5,000 × 4
    ##    .id   intercept  tmin log_beta
    ##    <chr>     <dbl> <dbl>    <dbl>
    ##  1 0001       7.19  1.05     2.02
    ##  2 0002       7.17  1.02     1.99
    ##  3 0003       7.18  1.03     2.00
    ##  4 0004       7.22  1.06     2.03
    ##  5 0005       7.18  1.05     2.02
    ##  6 0006       6.92  1.06     2.00
    ##  7 0007       7.25  1.02     2.00
    ##  8 0008       7.15  1.04     2.01
    ##  9 0009       6.99  1.03     1.98
    ## 10 0010       7.05  1.05     2.00
    ## # … with 4,990 more rows
…
``` r
boot_straps_r = 
  weather_df %>% 
  janitor::clean_names() %>%
  modelr::bootstrap(n = 5000) %>% 
  mutate(
    models = map(strap, ~lm(tmax ~ tmin, data = .x) ),
    results = map(models, broom::glance)) %>% 
  select(-strap, -models) %>% 
  unnest(results)

boot_straps_r
```

    ## # A tibble: 5,000 × 13
    ##    .id   r.squared adj.r.squared sigma statistic   p.value    df logLik   AIC
    ##    <chr>     <dbl>         <dbl> <dbl>     <dbl>     <dbl> <dbl>  <dbl> <dbl>
    ##  1 0001      0.905         0.904  2.94     3439. 3.13e-187     1  -910. 1827.
    ##  2 0002      0.907         0.907  2.96     3555. 1.34e-189     1  -913. 1832.
    ##  3 0003      0.917         0.916  2.90     3991. 6.39e-198     1  -905. 1816.
    ##  4 0004      0.914         0.913  2.90     3835. 4.82e-195     1  -905. 1816.
    ##  5 0005      0.919         0.919  2.88     4132. 2.00e-200     1  -903. 1813.
    ##  6 0006      0.915         0.915  2.96     3928. 8.91e-197     1  -913. 1831.
    ##  7 0007      0.914         0.914  2.95     3874. 9.15e-196     1  -912. 1829.
    ##  8 0008      0.911         0.911  2.90     3720. 7.46e-193     1  -905. 1817.
    ##  9 0009      0.910         0.909  2.93     3654. 1.44e-191     1  -910. 1825.
    ## 10 0010      0.919         0.919  2.90     4137. 1.61e-200     1  -905. 1816.
    ## # … with 4,990 more rows, and 4 more variables: BIC <dbl>, deviance <dbl>,
    ## #   df.residual <int>, nobs <int>
…
